8 Cleaning | opeRate
…
Removing/replacing missing values

Changing column types

Let’s look at how we might do these tasks in R using our Kaggle dataset as an example.

8.1 Filtering

In some cases, you’ll only want a subset of the data that’s been provided to you. To filter the dataset down, use the dplyr::filter() function and provide your criteria:

vg_sales %>%
  dplyr::filter(Year > 200) %>%
  print(n = 5)

## # A tibble: 16,327 × 11
##    Rank Name         Platform  Year Genre   Publisher NA_Sales EU_Sales JP_Sales
##   <dbl> <chr>        <chr>    <dbl> <chr>   <chr>        <dbl>    <dbl>    <dbl>
## 1     1 Wii Sports   Wii       2006 Sports  Nintendo      41.5    29.0      3.77
## 2     2 Super Mario… NES       1985 Platfo… Nintendo      29.1     3.58     6.81
## 3     3 Mario Kart … Wii       2008 Racing  Nintendo      15.8    12.9      3.79
## 4     4 Wii Sports … Wii       2009 Sports  Nintendo      15.8    11.0      3.28
## 5     5 Pokemon Red… GB        1996 Role-P… Nintendo      11.3     8.89    10.2 
## # … with 16,322 more rows, and 2 more variables: Other_Sales <dbl>,
## #   Global_Sales <dbl>

You can utilise the & and | operators (and and or respectively) to create more complicated criteria. You can also separate your expressions with commas, which is equivalent to &:

vg_sales %>%
  dplyr::filter(Year == 1999 | Year == 2000) %>%
  print(n = 2)

## # A tibble: 687 × 11
##    Rank Name       Platform  Year Genre  Publisher    NA_Sales EU_Sales JP_Sales
##   <dbl> <chr>      <chr>    <dbl> <chr>  <chr>           <dbl>    <dbl>    <dbl>
## 1    13 Pokemon G… GB        1999 Role-… Nintendo         9        6.18     7.2 
## 2    70 Gran Turi… PS        1999 Racing Sony Comput…     3.88     3.42     1.69
## # … with 685 more rows, and 2 more variables: Other_Sales <dbl>,
## #   Global_Sales <dbl>

vg_sales %>%
  dplyr::filter(Year == 1999, Platform == "GB") %>%
  # equivalent to dplyr::filter(Year == 1999 & Platform == "GB")
  print(n = 2)

## # A tibble: 11 × 11
##    Rank Name         Platform  Year Genre   Publisher NA_Sales EU_Sales JP_Sales
##   <dbl> <chr>        <chr>    <dbl> <chr>   <chr>        <dbl>    <dbl>    <dbl>
## 1    13 Pokemon Gol… GB        1999 Role-P… Nintendo      9        6.18     7.2 
## 2   172 Pokemon Pin… GB        1999 Misc    Nintendo      3.02     1.12     1.01
## # … with 9 more rows, and 2 more variables: Other_Sales <dbl>,
## #   Global_Sales <dbl>
…
clean_vg_sales <- vg_sales %>%
  dplyr::filter(Year <= 2010)

8.2 Missing values

Missing values are common in data science - data collection is often imperfect and so you’ll end up with observations or data-points missing. Firstly, you need to decide what you’re going to do with those.

The easiest approach to just to remove them, and we can do that with the dplyr::filter() and the is.na() functions. If you remember in the Loading chapter, {readr} had trouble parsing some of the values in our Year column to numeric, and so gave us some NAs. Let’s remove those rows using this approach:

## To remove rows with NA in one column
clean_vg_sales <- clean_vg_sales %>% 
  dplyr::filter(!is.na(Year))
print(clean_vg_sales, n = 5)

## # A tibble: 12,441 × 11
##    Rank Name         Platform  Year Genre   Publisher NA_Sales EU_Sales JP_Sales
##   <dbl> <chr>        <chr>    <dbl> <chr>   <chr>        <dbl>    <dbl>    <dbl>
## 1     1 Wii Sports   Wii       2006 Sports  Nintendo      41.5    29.0      3.77
## 2     2 Super Mario… NES       1985 Platfo… Nintendo      29.1     3.58     6.81
## 3     3 Mario Kart … Wii       2008 Racing  Nintendo      15.8    12.9      3.79
## 4     4 Wii Sports … Wii       2009 Sports  Nintendo      15.8    11.0      3.28
## 5     5 Pokemon Red… GB        1996 Role-P… Nintendo      11.3     8.89    10.2 
## # … with 12,436 more rows, and 2 more variables: Other_Sales <dbl>,
## #   Global_Sales <dbl>

## To remove rows with NA in any column
vg_sales %>% 
  dplyr::filter(dplyr::across(dplyr::everything(), ~!is.na(.x))) %>%
  print(n = 5)

## Warning: data frame results in `filter()` are deprecated, use `if_any()` or
## `if_all()`.

## # A tibble: 16,327 × 11
##    Rank Name         Platform  Year Genre   Publisher NA_Sales EU_Sales JP_Sales
##   <dbl> <chr>        <chr>    <dbl> <chr>   <chr>        <dbl>    <dbl>    <dbl>
## 1     1 Wii Sports   Wii       2006 Sports  Nintendo      41.5    29.0      3.77
## 2     2 Super Mario… NES       1985 Platfo… Nintendo      29.1     3.58     6.81
## 3     3 Mario Kart … Wii       2008 Racing  Nintendo      15.8    12.9      3.79
## 4     4 Wii Sports … Wii       2009 Sports  Nintendo      15.8    11.0      3.28
## 5     5 Pokemon Red… GB        1996 Role-P… Nintendo      11.3     8.89    10.2 
## # … with 16,322 more rows, and 2 more variables: Other_Sales <dbl>,
## #   Global_Sales <dbl>
…
