7.2 CSV | opeRate
…
print(vg_sales, n = 5)

## # A tibble: 16,598 x 11
##    Rank Name  Platform Year  Genre Publisher NA_Sales EU_Sales JP_Sales
##   <dbl> <chr> <chr>    <chr> <chr> <chr>        <dbl>    <dbl>    <dbl>
## 1     1 Wii … Wii      2006  Spor… Nintendo      41.5    29.0      3.77
## 2     2 Supe… NES      1985  Plat… Nintendo      29.1     3.58     6.81
## 3     3 Mari… Wii      2008  Raci… Nintendo      15.8    12.9      3.79
## 4     4 Wii … Wii      2009  Spor… Nintendo      15.8    11.0      3.28
## 5     5 Poke… GB       1996  Role… Nintendo      11.3     8.89    10.2 
## # … with 16,593 more rows, and 2 more variables: Other_Sales <dbl>,
## #   Global_Sales <dbl>
…
