8.2 Missing values | opeRate
…
            opeRate

8.2 Missing values

Missing values are common in data science - data collection is often imperfect and so you’ll end up with observations or data-points missing. Firstly, you need to decide what you’re going to do with those.

The easiest approach to just to remove them, and we can do that with the dplyr::filter() and the is.na() functions. If you remember in the Loading chapter, {readr} had trouble parsing some of the values in our Year column to numeric, and so gave us some NAs. Let’s remove those rows using this approach:

## To remove rows with NA in one column
clean_vg_sales <- vg_sales %>% 
  dplyr::filter(!is.na(Year))
print(clean_vg_sales, n = 5)

## # A tibble: 16,327 x 11
##    Rank Name  Platform  Year Genre Publisher NA_Sales EU_Sales JP_Sales
##   <dbl> <chr> <chr>    <dbl> <chr> <chr>        <dbl>    <dbl>    <dbl>
## 1     1 Wii … Wii       2006 Spor… Nintendo      41.5    29.0      3.77
## 2     2 Supe… NES       1985 Plat… Nintendo      29.1     3.58     6.81
## 3     3 Mari… Wii       2008 Raci… Nintendo      15.8    12.9      3.79
## 4     4 Wii … Wii       2009 Spor… Nintendo      15.8    11.0      3.28
## 5     5 Poke… GB        1996 Role… Nintendo      11.3     8.89    10.2 
## # … with 16,322 more rows, and 2 more variables: Other_Sales <dbl>,
## #   Global_Sales <dbl>

## To remove rows with NA in any column
vg_sales %>% 
  dplyr::filter(dplyr::across(dplyr::everything(), ~!is.na(.x))) %>%
  print(n = 5)

## # A tibble: 16,327 x 11
##    Rank Name  Platform  Year Genre Publisher NA_Sales EU_Sales JP_Sales
##   <dbl> <chr> <chr>    <dbl> <chr> <chr>        <dbl>    <dbl>    <dbl>
## 1     1 Wii … Wii       2006 Spor… Nintendo      41.5    29.0      3.77
## 2     2 Supe… NES       1985 Plat… Nintendo      29.1     3.58     6.81
## 3     3 Mari… Wii       2008 Raci… Nintendo      15.8    12.9      3.79
## 4     4 Wii … Wii       2009 Spor… Nintendo      15.8    11.0      3.28
## 5     5 Poke… GB        1996 Role… Nintendo      11.3     8.89    10.2 
## # … with 16,322 more rows, and 2 more variables: Other_Sales <dbl>,
## #   Global_Sales <dbl>
…
