3.5 Mutating | opeRate
…
            opeRate

3.5 Mutating

Sometimes you’ll want to add new columns to your data. Most of the time, these will be calculated columns that can be created based on one or more of the other columns in the dataset. To create new columns, we use the dplyr::mutate() function.

First off, let’s add something simple; a column that calculates the proportion of EU sales compared to global sales. All we need to do is provide the name of our new column to the dplyr::mutate() function and how our new column should be calculated:

clean_vg_sales %>%
  dplyr::mutate(EU_Proportion = EU_Sales/Global_Sales) %>%
  dplyr::select(Rank, Name, Platform, Year, Genre, Publisher, EU_Proportion) %>%
  print(n = 5)

## # A tibble: 16,327 x 7
##    Rank Name                   Platform  Year Genre      Publisher EU_Proportion
##   <dbl> <chr>                  <chr>    <dbl> <chr>      <chr>             <dbl>
## 1     1 Wii Sports             Wii       2006 Sports     Nintendo         0.351 
## 2     2 Super Mario Bros.      NES       1985 Platform   Nintendo         0.0890
## 3     3 Mario Kart Wii         Wii       2008 Racing     Nintendo         0.360 
## 4     4 Wii Sports Resort      Wii       2009 Sports     Nintendo         0.334 
## 5     5 Pokemon Red/Pokemon B… GB        1996 Role-Play… Nintendo         0.283 
## # … with 16,322 more rows

As you can see, we’ve created a new column called EU_Proportion and we’ve calculated by dividing the number of EU sales by the total number of sales.

While this is certainly a powerful tool, we’re not really changing the world here. However, we can create more complicated columns by leveraging the concept of applying our function to groups.

When our dataset is grouped, our mutate() call will be evaluated for each permutation of the provided groups. Let’s look at an example of creating a cumulative sum for each Publisher:

clean_vg_sales %>%
  dplyr::group_by(Publisher) %>%
  dplyr::arrange(as.numeric(Year)) %>% # We need to order from earliest date to latest
  dplyr::mutate(Cumulative_Sales = cumsum(Global_Sales)) %>%
  dplyr::filter(Publisher %in% c("Atari", "Activision")) %>% # Let's just look at Atari & Activision
  print(n = 5)

## # A tibble: 1,313 x 12
## # Groups:   Publisher [2]
##    Rank Name  Platform  Year Genre Publisher NA_Sales EU_Sales JP_Sales
##   <dbl> <chr> <chr>    <dbl> <chr> <chr>        <dbl>    <dbl>    <dbl>
## 1   259 Aste… 2600      1980 Shoo… Atari         4        0.26        0
## 2   545 Miss… 2600      1980 Shoo… Atari         2.56     0.17        0
## 3  1768 Kabo… 2600      1980 Misc  Activisi…     1.07     0.07        0
## 4  1971 Defe… 2600      1980 Misc  Atari         0.99     0.05        0
## 5  2671 Boxi… 2600      1980 Figh… Activisi…     0.72     0.04        0
## # … with 1,308 more rows, and 3 more variables: Other_Sales <dbl>,
## #   Global_Sales <dbl>, Cumulative_Sales <dbl>
…
