4.5 Mutation (new columns) | opeRate
…
print(vg_sales, n = 5)

## # A tibble: 16,598 x 11
##    Rank Name  Platform Year  Genre Publisher NA_Sales EU_Sales JP_Sales
##   <dbl> <chr> <chr>    <chr> <chr> <chr>        <dbl>    <dbl>    <dbl>
## 1     1 Wii … Wii      2006  Spor… Nintendo      41.5    29.0      3.77
## 2     2 Supe… NES      1985  Plat… Nintendo      29.1     3.58     6.81
## 3     3 Mari… Wii      2008  Raci… Nintendo      15.8    12.9      3.79
## 4     4 Wii … Wii      2009  Spor… Nintendo      15.8    11.0      3.28
## 5     5 Poke… GB       1996  Role… Nintendo      11.3     8.89    10.2 
## # … with 16,593 more rows, and 2 more variables: Other_Sales <dbl>,
## #   Global_Sales <dbl>

First off, let’s add something simple; a column that calculates the proportion of EU sales compared to global sales. All we need to do is provide the name of our new column to the dplyr::mutate() function and how our new column should be calculated:

vg_sales %>%
  dplyr::mutate(EU_Proportion = EU_Sales/Global_Sales) %>%
  print(n = 5)

## # A tibble: 16,598 x 12
##    Rank Name  Platform Year  Genre Publisher NA_Sales EU_Sales JP_Sales
##   <dbl> <chr> <chr>    <chr> <chr> <chr>        <dbl>    <dbl>    <dbl>
## 1     1 Wii … Wii      2006  Spor… Nintendo      41.5    29.0      3.77
## 2     2 Supe… NES      1985  Plat… Nintendo      29.1     3.58     6.81
## 3     3 Mari… Wii      2008  Raci… Nintendo      15.8    12.9      3.79
## 4     4 Wii … Wii      2009  Spor… Nintendo      15.8    11.0      3.28
## 5     5 Poke… GB       1996  Role… Nintendo      11.3     8.89    10.2 
## # … with 16,593 more rows, and 3 more variables: Other_Sales <dbl>,
## #   Global_Sales <dbl>, EU_Proportion <dbl>
…
While this is certainly a powerful tool, we’re not really changing the world here. However, we can create more complicated columns by leveraging the concept of applying our function to groups.

4.5.1 Grouping

When a data frame has one or more groups, the function that’s applied (by dplyr::mutate() here but the logic is the same for dplyr::summarise() which we’ll look at next) is applied for each combination of those groups. So for example with our videa game sales dataset, if we grouped by Publisher, then the calculation in our mutate() function would be done within the scope of each publisher. If we grouped by Publisher and Genre, then the calculation would be done within the scope of each Publisher and genre.

To group a dataset, we use the dplyr::group_by() function:

grpd_vg_sales <- dplyr::group_by(vg_sales, Platform)

The dplyr::group_by() function returns the same dataset but now grouped by the variables you provided. At first, it might not seem as though anything happened - if we print the dataset we still get basically the same output…

print(grpd_vg_sales, 5)

## # A tibble: 16,598 x 11
## # Groups:   Platform [31]
##     Rank Name  Platform Year  Genre Publisher NA_Sales EU_Sales JP_Sales
##    <dbl> <chr> <chr>    <chr> <chr> <chr>        <dbl>    <dbl>    <dbl>
##  1     1 Wii … Wii      2006  Spor… Nintendo      41.5    29.0      3.77
##  2     2 Supe… NES      1985  Plat… Nintendo      29.1     3.58     6.81
##  3     3 Mari… Wii      2008  Raci… Nintendo      15.8    12.9      3.79
##  4     4 Wii … Wii      2009  Spor… Nintendo      15.8    11.0      3.28
##  5     5 Poke… GB       1996  Role… Nintendo      11.3     8.89    10.2 
##  6     6 Tetr… GB       1989  Puzz… Nintendo      23.2     2.26     4.22
##  7     7 New … DS       2006  Plat… Nintendo      11.4     9.23     6.5 
##  8     8 Wii … Wii      2006  Misc  Nintendo      14.0     9.2      2.93
##  9     9 New … Wii      2009  Plat… Nintendo      14.6     7.06     4.7 
## 10    10 Duck… NES      1984  Shoo… Nintendo      26.9     0.63     0.28
## # … with 16,588 more rows, and 2 more variables: Other_Sales <dbl>,
## #   Global_Sales <dbl>
Except now we have a new entry Groups:. This tells us that the dataset has been grouped and by what variables. This means that any subsequent summarisation we do will be done against those groups.

To test whether a dataset has been grouped, you can use the dplyr::is_grouped_df(), and to ungroup a dataset, just use dplyr::ungroup():

dplyr::is_grouped_df(grpd_vg_sales)

## [1] TRUE

dplyr::is_grouped_df(vg_sales)

## [1] FALSE

print(dplyr::ungroup(grpd_vg_sales), n = 5)

## # A tibble: 16,598 x 11
##    Rank Name  Platform Year  Genre Publisher NA_Sales EU_Sales JP_Sales
##   <dbl> <chr> <chr>    <chr> <chr> <chr>        <dbl>    <dbl>    <dbl>
## 1     1 Wii … Wii      2006  Spor… Nintendo      41.5    29.0      3.77
## 2     2 Supe… NES      1985  Plat… Nintendo      29.1     3.58     6.81
## 3     3 Mari… Wii      2008  Raci… Nintendo      15.8    12.9      3.79
## 4     4 Wii … Wii      2009  Spor… Nintendo      15.8    11.0      3.28
## 5     5 Poke… GB       1996  Role… Nintendo      11.3     8.89    10.2 
## # … with 16,593 more rows, and 2 more variables: Other_Sales <dbl>,
## #   Global_Sales <dbl>
…
vg_sales %>%
  dplyr::group_by(Publisher) %>%
  dplyr::arrange(as.numeric(Year)) %>% # We need to order from earliest date to latest
  dplyr::mutate(Cumulative_Sales = cumsum(Global_Sales)) %>%
  dplyr::filter(Publisher %in% c("Atari", "Activision")) %>% # Let's just look at Atari & Activision
  print(n = 5)

## Warning: Problem with `mutate()` input `^^--arrange_quosure_1`.
## ℹ NAs introduced by coercion
## ℹ Input `^^--arrange_quosure_1` is `as.numeric(Year)`.

## Warning in mask$eval_all_mutate(dots[[i]]): NAs introduced by coercion

## # A tibble: 1,338 x 12
## # Groups:   Publisher [2]
##    Rank Name  Platform Year  Genre Publisher NA_Sales EU_Sales JP_Sales
##   <dbl> <chr> <chr>    <chr> <chr> <chr>        <dbl>    <dbl>    <dbl>
## 1   259 Aste… 2600     1980  Shoo… Atari         4        0.26        0
## 2   545 Miss… 2600     1980  Shoo… Atari         2.56     0.17        0
## 3  1768 Kabo… 2600     1980  Misc  Activisi…     1.07     0.07        0
## 4  1971 Defe… 2600     1980  Misc  Atari         0.99     0.05        0
## 5  2671 Boxi… 2600     1980  Figh… Activisi…     0.72     0.04        0
## # … with 1,333 more rows, and 3 more variables: Other_Sales <dbl>,
## #   Global_Sales <dbl>, Cumulative_Sales <dbl>
…
