9.1 Pivoting | opeRate
…
            opeRate

9.1 Pivoting

The main culprit of untidy data is data that breaks the first rule: Not every column is a variable. Data in this format is sometimes called wide data - as you add more levels, you’ll add more columns and so the data will get wider. Conversely, tidy data will get longer as you add more levels.

So there two different forms of data:

Long

Wide

Let’s look at use our Kaggle dataset as an example to see how the two forms differ in practice:

## # A tibble: 16,327 x 7
##    Year Name              NA_Sales EU_Sales JP_Sales Other_Sales Global_Sales
##   <dbl> <chr>                <dbl>    <dbl>    <dbl>       <dbl>        <dbl>
## 1  2006 Wii Sports            41.5    29.0      3.77        8.46         82.7
## 2  1985 Super Mario Bros.     29.1     3.58     6.81        0.77         40.2
## 3  2008 Mario Kart Wii        15.8    12.9      3.79        3.31         35.8
## # … with 16,324 more rows

What would happen if we added data for more countries? We’d be adding more columns, and so our data would get wider. So our clean_vg_sales data is currently in the wide format. If we had the country as its own column however, like this:

## # A tibble: 81,635 x 3
##    Year Country Sales
##   <dbl> <chr>   <dbl>
## 1  2006 NA      41.5 
## 2  2006 EU      29.0 
## 3  2006 JP       3.77
## 4  2006 Other    8.46
## 5  2006 Global  82.7 
## # … with 81,630 more rows
…
Note:
One thing to keep in mind is that long data does not always mean tidy, but wide data can never be tidy. It’s a subtle distinction but it’s important to remember.

9.1.1 Pivoting columns to rows (longer)

To convert wide data to long, we need to pivot the columns to rows. To this using {tidyr}, we use the pivot_longer() function because we want to pivot from the wide format to the long format.

To do this in the simplest way, we just need to tell the function which columns we want to pivot:

tidyr::pivot_longer(clean_vg_sales, cols = c(NA_Sales, EU_Sales, JP_Sales, Other_Sales, Global_Sales)) %>%
  # We'll just look at the columns we're interested in for the moment
  dplyr::select(Name, Year, name, value) %>%
  print(n = 2)

## # A tibble: 81,635 x 4
##   Name        Year name     value
##   <chr>      <dbl> <chr>    <dbl>
## 1 Wii Sports  2006 NA_Sales  41.5
## 2 Wii Sports  2006 EU_Sales  29.0
## # … with 81,633 more rows

This is a good start. Now we’ve converted to long format, we’re abiding by the three rules and so we’ve got a tidy dataset! But there’s definitely some improvements to be done. Firstly, “name” and “value” aren’t the best names we could come up with for these columns, so we should probably use some new ones. To do this, we just need to provide new names to the names_to and values_to parameters:

tidyr::pivot_longer(clean_vg_sales,
                    cols = c(NA_Sales, EU_Sales, JP_Sales, Other_Sales, Global_Sales),
                    names_to = "Country",
                    values_to = "Sales") %>% 
  dplyr::select(Name, Year, Country, Sales) %>%
  print(n = 2)

## # A tibble: 81,635 x 4
##   Name        Year Country  Sales
##   <chr>      <dbl> <chr>    <dbl>
## 1 Wii Sports  2006 NA_Sales  41.5
## 2 Wii Sports  2006 EU_Sales  29.0
## # … with 81,633 more rows
…
Because it’s at the end of the string though, we have to deal with it a bit differently. One way to remove that text would be to split the column name by the “_” and then just exclude the second part:

tidy_vg_sales <- clean_vg_sales %>% 
  tidyr::pivot_longer(cols = c(NA_Sales, EU_Sales, JP_Sales, Other_Sales, Global_Sales),
                      names_to = c("Country", NA), values_to = "Sales", names_sep = "_"
  )

tidy_vg_sales %>%
  dplyr::select(Year, Country, Sales) %>%
  print(n = 5)

## # A tibble: 81,635 x 3
##    Year Country Sales
##   <dbl> <chr>   <dbl>
## 1  2006 NA      41.5 
## 2  2006 EU      29.0 
## 3  2006 JP       3.77
## 4  2006 Other    8.46
## 5  2006 Global  82.7 
## # … with 81,630 more rows
…
Now our code will work with any number of columns as long as they end in ’_Sales’.

This is just one example of how we could utilise the pivot_longer() function to convert ‘messy’ data to the tidy format. In the wild you’ll get data that violates any of the three rules of tidy data in many different ways, and we just don’t have the space to go through it here. If you do need how to convert some of the other forms of messy data, then the {tidyr} package has a number of vignettes outlining many different ways to use the tidying tools it provides.

9.1.2 Pivoting rows to columns (wider)

Most of the time you should be going from wide to long, but we’ll go through how to do the reverse for the occasions where it’s required. To transform the data to the wide format, we use the pivot_wider() function. At the simplest level, we just need to provide where the name comes from and where the values come from with the names_from and values_from parameters respectively:

tidyr::pivot_wider(tidy_vg_sales, names_from = Country, values_from = Sales)

## # A tibble: 16,327 x 11
##     Rank Name     Platform  Year Genre  Publisher  `NA`    EU    JP Other Global
##    <dbl> <chr>    <chr>    <dbl> <chr>  <chr>     <dbl> <dbl> <dbl> <dbl>  <dbl>
##  1     1 Wii Spo… Wii       2006 Sports Nintendo   41.5 29.0   3.77 8.46    82.7
##  2     2 Super M… NES       1985 Platf… Nintendo   29.1  3.58  6.81 0.77    40.2
##  3     3 Mario K… Wii       2008 Racing Nintendo   15.8 12.9   3.79 3.31    35.8
##  4     4 Wii Spo… Wii       2009 Sports Nintendo   15.8 11.0   3.28 2.96    33  
##  5     5 Pokemon… GB        1996 Role-… Nintendo   11.3  8.89 10.2  1       31.4
##  6     6 Tetris   GB        1989 Puzzle Nintendo   23.2  2.26  4.22 0.580   30.3
##  7     7 New Sup… DS        2006 Platf… Nintendo   11.4  9.23  6.5  2.9     30.0
##  8     8 Wii Play Wii       2006 Misc   Nintendo   14.0  9.2   2.93 2.85    29.0
##  9     9 New Sup… Wii       2009 Platf… Nintendo   14.6  7.06  4.7  2.26    28.6
## 10    10 Duck Hu… NES       1984 Shoot… Nintendo   26.9  0.63  0.28 0.47    28.3
## # … with 16,317 more rows

To get our data more like we started, we can use the names_glue to provide a {glue} string argument to create the column names from a template:

tidyr::pivot_wider(tidy_vg_sales, names_from = Country, values_from = Sales,
                   names_glue = "{Country}_Sales") %>%
  dplyr::select(Year, Name, tidyselect::ends_with("_Sales")) %>%
  print(n = 5)

## # A tibble: 16,327 x 7
##    Year Name                 NA_Sales EU_Sales JP_Sales Other_Sales Global_Sales
##   <dbl> <chr>                   <dbl>    <dbl>    <dbl>       <dbl>        <dbl>
## 1  2006 Wii Sports               41.5    29.0      3.77        8.46         82.7
## 2  1985 Super Mario Bros.        29.1     3.58     6.81        0.77         40.2
## 3  2008 Mario Kart Wii           15.8    12.9      3.79        3.31         35.8
## 4  2009 Wii Sports Resort        15.8    11.0      3.28        2.96         33  
## 5  1996 Pokemon Red/Pokemon…     11.3     8.89    10.2         1            31.4
## # … with 16,322 more rows
