3.6 Summarising | opeRate
…
Summarisation uses exactly the same grouping concept as mutatation does; by grouping the data we change the scope of each application of the function to be limited to that group.

Let’s go through an example. Let’s say that we want to get the total sales for each publisher in each year. For now, we don’t care about genre or platform. To do this, we’ll need to group by Publisher and by Year:

vg_sales %>%
  dplyr::group_by(Publisher, Year)

And then we’ll want to sum up the Global_Sales column to get our totals:

vg_sales %>%
  dplyr::group_by(Publisher, Year) %>%
  dplyr::summarise(Total_Global_Sales = sum(Global_Sales), .groups = "drop")

## # A tibble: 2,379 x 3
##    Publisher                    Year  Total_Global_Sales
##    <chr>                        <chr>              <dbl>
##  1 10TACLE Studios              2006                0.02
##  2 10TACLE Studios              2007                0.09
##  3 1C Company                   2009                0.01
##  4 1C Company                   2011                0.09
##  5 20th Century Fox Video Games 1981                1.35
##  6 20th Century Fox Video Games 1982                0.59
##  7 2D Boy                       2008                0.04
##  8 3DO                          1998                0.4 
##  9 3DO                          1999                4.14
## 10 3DO                          2000                3.08
## # … with 2,369 more rows

# The .groups = 'drop' parameter will automatically remove the groups

Now we can see that the number of rows has reduced down to just under 2,000, and we’ve got the total global sales for each of our publishers, and for each year. {dplyr} has looked through each publisher and each year that publisher has at least 1 game, and added up the total number of sales, then moved onto the next Publisher/Year combination.

In this case we’ve used the sum() function, but any kind of summary function can be used:

vg_sales %>%
  dplyr::group_by(Publisher, Year) %>%
  dplyr::summarise(Total_Global_Sales = sum(Global_Sales),
                   Average_Global_Sales = mean(Global_Sales),
                   .groups = "drop")

## # A tibble: 2,379 x 4
##    Publisher                    Year  Total_Global_Sales Average_Global_Sales
##    <chr>                        <chr>              <dbl>                <dbl>
##  1 10TACLE Studios              2006                0.02                0.02 
##  2 10TACLE Studios              2007                0.09                0.045
##  3 1C Company                   2009                0.01                0.01 
##  4 1C Company                   2011                0.09                0.045
##  5 20th Century Fox Video Games 1981                1.35                0.45 
##  6 20th Century Fox Video Games 1982                0.59                0.295
##  7 2D Boy                       2008                0.04                0.04 
##  8 3DO                          1998                0.4                 0.2  
##  9 3DO                          1999                4.14                0.69 
## 10 3DO                          2000                3.08                0.308
## # … with 2,369 more rows
…
