3.3 Tidying | opeRate
…
That’s better. But what happens now if we get sent the same dataset but with all 12 months worth of data? We’d have to add those extra columns to our cols vector. Instead, we can use some tidyselect syntax to choose columns based on their features, like how they start:

tidy_column_example <- tidyr::pivot_longer(column_example,
                                           cols = tidyselect::starts_with("Month"),
                                           names_to = "Month",
                                           values_to = "Temperature",
                                           names_transform = list(Month = readr::parse_number))
print(tidy_column_example, n = 3)

## # A tibble: 9 x 3
##   Year  Month Temperature
##   <chr> <dbl>       <dbl>
## 1 2012      1          10
## 2 2012      2          20
## 3 2012      3          30
## # … with 6 more rows
…
